[gd_scene load_steps=2 format=2]

[ext_resource path="res://screens/fight/Enemy.gd" type="Script" id=1]

[node name="Enemy" type="TextureButton"]
script = ExtResource( 1 )

[connection signal="pressed" from="." to="." method="_pressed"]
