{
	"$baseURI": "https://yal.cc/r/20/pixelfont/",
	"$version": "1.0",
	"in-glyphs": [
		"0123456789"
	],
	"glyph-color": "black",
	"in-kerning": [
		""
	],
	"glyph-width": 7,
	"glyph-height": 7,
	"glyph-ofs-x": 0,
	"glyph-ofs-y": 0,
	"glyph-sep-x": 0,
	"glyph-sep-y": 0,
	"glyph-base-x": 0,
	"glyph-baseline": 0,
	"glyph-spacing": 1,
	"font-is-mono": true,
	"font-em-square": 1024,
	"font-line-gap": 0,
	"font-ascend": 768,
	"font-descend": -256,
	"font-px-size": 64,
	"font-name": "MOTHER 3 HP/PP",
	"font-author": "MOTHER 3 English translation team",
	"font-copy": "",
	"font-version": "Version 0.1",
	"font-desc": "The font used in the HP and PP meters of MOTHER 3",
	"font-license": "Non-commercial",
	"font-license-url": "",
	"font-sample-text": "123",
	"font-preview-text": [
		"012"
	]
}