[gd_scene load_steps=3 format=2]

[ext_resource path="res://screens/CharacterSprite.gd" type="Script" id=1]

[sub_resource type="SpriteFrames" id=1]
animations = [ {
"frames": [  ],
"loop": true,
"name": "default",
"speed": 5.0
} ]

[node name="CharacterSprite" type="AnimatedSprite"]
position = Vector2( 8, 8 )
frames = SubResource( 1 )
script = ExtResource( 1 )
